{"msgType": "lapFinished", "data": {
    "car": {
        "name": "Schumacher",
        "color": "red"
    },
    "lapTime": {
        "lap": 1,
        "ticks": 666,
        "millis": 6660
    },
    "raceTime": {
        "laps": 1,
        "ticks": 666,
        "millis": 6660
    },
    "ranking": {
        "overall": 1,
        "fastestLap": 1
    }
}, "gameId": "OIUHGERJWEOI", "gameTick": 300}